 2402 | 112808 |      1417535073000 |      1417535059545 | {"j1939_pgn65265": "F700000C00001FFF", "uptime": 944, "j1939_pgn65266": "000000FFFFFFFFFF", "j1939_pgn65262": "53FFFFFFFFFFFFFF", "seats": "0000000000B00120000000000106013E", "j1939_pgn65257": "FFFFFFFFE7700600", "firmwareCRC": 3071729146, "custom": "340BGS", "netDate": 1417535058, "j1939_pgn65217": "7BFFFC099B7BEE08", "imsi": "248010201138053", "address": "217.71.47.210", "imei": "864161026564919", "serial": "864161026564919", "gsmDate": 1417535073, "port": "1", "firmwareVersion": 258, "voltage": 241}
 2401 | 112807 |      1417535068000 |      1417535054126 | {"j1939_pgn65265": "F700000C00001FFF", "uptime": 939, "j1939_pgn65266": "000000FFFFFFFFFF", "j1939_pgn65262": "53FFFFFFFFFFFFFF", "seats": "0000000000B00120000000000106013E", "j1939_pgn65257": "FFFFFFFFE7700600", "firmwareCRC": 3071729146, "custom": "340BGS", "netDate": 1417535053, "j1939_pgn65217": "7BFFFC099B7BEE08", "imsi": "248010201138053", "address": "217.71.47.210", "imei": "864161026564919", "serial": "864161026564919", "gsmDate": 1417535068, "port": "1", "firmwareVersion": 258, "voltage": 240}
 2400 | 112806 |      1417535063000 |      1417535049089 | {"j1939_pgn65265": "F700000C00001FFF", "uptime": 934, "j1939_pgn65266": "000000FFFFFFFFFF", "j1939_pgn65262": "53FFFFFFFFFFFFFF", "seats": "0000000000AF0120000000000106013E", "j1939_pgn65257": "FFFFFFFFE7700600", "firmwareCRC": 3071729146, "custom": "340BGS", "netDate": 1417535048, "j1939_pgn65217": "7BFFFC099B7BEE08", "imsi": "248010201138053", "address": "217.71.47.210", "imei": "864161026564919", "serial": "864161026564919", "gsmDate": 1417535063, "port": "1", "firmwareVersion": 258, "voltage": 239}
 2399 | 112805 |      1417535058000 |      1417535044089 | {"j1939_pgn65265": "F700000C00001FFF", "uptime": 929, "j1939_pgn65266": "000000FFFFFFFFFF", "j1939_pgn65262": "53FFFFFFFFFFFFFF", "seats": "0000000000B00120000000000106013C", "j1939_pgn65257": "FFFFFFFFE7700600", "firmwareCRC": 3071729146, "custom": "340BGS", "netDate": 1417535043, "j1939_pgn65217": "7BFFFC099B7BEE08", "imsi": "248010201138053", "address": "217.71.47.210", "imei": "864161026564919", "serial": "864161026564919", "gsmDate": 1417535058, "port": "1", "firmwareVersion": 258, "voltage": 241}
 2398 | 112804 |      1417535053000 |      1417535039066 | {"j1939_pgn65265": "F700000C00001FFF", "uptime": 924, "j1939_pgn65266": "000000FFFFFFFFFF", "j1939_pgn65262": "53FFFFFFFFFFFFFF", "seats": "0000000000B00120000000000106013C", "j1939_pgn65257": "FFFFFFFFE7700600", "firmwareCRC": 3071729146, "custom": "340BGS", "netDate": 1417535038, "j1939_pgn65217": "7BFFFC099B7BEE08", "imsi": "248010201138053", "address": "217.71.47.210", "imei": "864161026564919", "serial": "864161026564919", "gsmDate": 1417535053, "port": "1", "firmwareVersion": 258, "voltage": 242}
 2397 | 112803 |      1417535048000 |      1417535034125 | {"j1939_pgn65265": "F700000C00001FFF", "uptime": 919, "j1939_pgn65266": "000000FFFFFFFFFF", "j1939_pgn65262": "53FFFFFFFFFFFFFF", "seats": "0000000000AF0120000000000106013C", "j1939_pgn65257": "FFFFFFFFE7700600", "firmwareCRC": 3071729146, "custom": "340BGS", "netDate": 1417535033, "j1939_pgn65217": "7BFFFC099B7BEE08", "imsi": "248010201138053", "address": "217.71.47.210", "imei": "864161026564919", "serial": "864161026564919", "gsmDate": 1417535048, "port": "1", "firmwareVersion": 258, "voltage": 242}
 2396 | 112802 |      1417535043000 |      1417535030108 | {"j1939_pgn65265": "F700000C00001FFF", "uptime": 914, "j1939_pgn65266": "000000FFFFFFFFFF", "j1939_pgn65262": "53FFFFFFFFFFFFFF", "seats": "0000000000AF0120000000000107013C", "j1939_pgn65257": "FFFFFFFFE7700600", "firmwareCRC": 3071729146, "custom": "340BGS", "netDate": 1417535028, "j1939_pgn65217": "7BFFFC099B7BEE08", "imsi": "248010201138053", "address": "217.71.47.210", "imei": "864161026564919", "serial": "864161026564919", "gsmDate": 1417535043, "port": "1", "firmwareVersion": 258, "voltage": 241}

